26

5 8
5
f 4 1 e
h 4 5 s
f 2 6 n
h 3 2 e
f 0 2 s
4 2

9 3
4
r 0 2 e
h 0 1 e
r 0 1 s
h 4 1 n
10 1

10 3
6
t 0 0 n
t 7 2 n
r 9 2 w
t 3 1 s
t 6 0 n
t 9 2 e
4 3

2 4
5
r 0 2 n
t 0 3 e
t 0 0 s
h 0 1 s
f 1 2 e
8 3

7 7
6
f 2 1 e
t 6 1 n
r 2 3 e
t 6 5 e
f 6 1 e
r 5 0 n
2 1

9 2
5
r 2 1 w
t 3 0 w
f 2 1 s
t 1 0 w
r 4 0 n
7 2

10 7
4
h 0 5 s
h 0 4 e
h 8 1 n
f 4 6 w
7 6

2 7
2
f 1 3 e
r 1 3 n
10 5

7 6
2
h 5 5 w
t 6 5 s
3 1

5 2
5
t 2 0 w
f 0 1 s
f 4 0 e
r 4 0 n
r 1 0 w
7 1

8 10
5
t 2 9 s
h 4 9 e
h 6 2 e
r 4 7 e
h 1 7 n
5 1

5 10
4
f 3 4 e
t 1 1 s
t 3 3 s
h 0 8 e
4 1

10 8
3
t 6 2 e
r 9 5 n
t 6 7 n
4 1

4 6
6
r 1 1 w
r 2 0 n
r 1 0 s
f 2 2 n
r 2 1 e
t 2 2 s
3 1

7 7
4
f 2 3 s
h 3 6 e
h 3 4 n
t 1 6 e
6 1

10 9
2
r 7 1 s
r 3 8 n
2 1

6 2
3
t 2 1 w
r 3 1 n
f 4 1 w
2 1

2 3
4
h 1 0 w
r 0 0 e
f 1 2 n
r 0 1 n
7 1

3 8
2
t 0 6 e
r 1 1 w
10 3

6 4
5
r 1 3 w
h 0 3 s
t 5 3 s
r 1 3 e
f 4 2 e
3 2

3 2
3
r 2 1 e
r 1 1 w
t 1 0 w
9 4

7 2
6
h 5 0 s
f 0 1 n
f 5 1 n
f 4 0 n
h 4 0 n
t 3 1 n
4 2

8 9
2
f 5 0 n
f 2 5 n
10 9

5 8
5
f 2 2 n
h 3 7 w
r 1 1 s
f 4 2 e
t 3 4 w
2 1

8 3
5
r 5 1 s
t 5 0 e
f 7 0 s
r 0 0 n
t 0 1 e
8 2

4 9
4
f 3 8 e
h 0 8 s
f 2 5 w
h 2 3 n
8 1
