*** Darwin 6x3 ***
Turn = 0.
  012
0 f.r
1 ...
2 .rr
3 r.t
4 rhf
5 .f.

*** Darwin 5x18 ***
Turn = 0.
  012345678901234567
0 .fr...f...........
1 ..........h....ft.
2 .t...f......h..rr.
3 ...h........h.....
4 h.................

Turn = 12.
  012345678901234567
0 .f...........r....
1 ..............tttt
2 .t..........h..t..
3 .......r....h.....
4 h..rr.............

*** Darwin 13x2 ***
Turn = 0.
  01
0 ..
1 .t
2 ..
3 ..
4 ..
5 ..
6 ..
7 h.
8 ..
9 ..
0 ..
1 ..
2 ..

Turn = 2.
  01
0 ..
1 .t
2 ..
3 ..
4 ..
5 h.
6 ..
7 ..
8 ..
9 ..
0 ..
1 ..
2 ..

Turn = 4.
  01
0 ..
1 .t
2 ..
3 h.
4 ..
5 ..
6 ..
7 ..
8 ..
9 ..
0 ..
1 ..
2 ..

Turn = 6.
  01
0 ..
1 ht
2 ..
3 ..
4 ..
5 ..
6 ..
7 ..
8 ..
9 ..
0 ..
1 ..
2 ..

Turn = 8.
  01
0 h.
1 .t
2 ..
3 ..
4 ..
5 ..
6 ..
7 ..
8 ..
9 ..
0 ..
1 ..
2 ..

*** Darwin 14x3 ***
Turn = 0.
  012
0 r.t
1 .f.
2 tt.
3 ...
4 ...
5 t..
6 h..
7 .h.
8 ...
9 f.t
0 .r.
1 ...
2 ...
3 ..h

Turn = 4.
  012
0 .tt
1 .t.
2 tt.
3 ...
4 ...
5 t..
6 ..h
7 h..
8 ...
9 f.t
0 ...
1 ...
2 ...
3 hr.

Turn = 8.
  012
0 .tt
1 .t.
2 tt.
3 ...
4 ...
5 t..
6 ..h
7 h..
8 ...
9 f.t
0 ...
1 ...
2 ...
3 hr.

Turn = 12.
  012
0 .tt
1 .t.
2 tt.
3 ...
4 ...
5 t..
6 ..h
7 h..
8 ...
9 f.t
0 ...
1 rr.
2 ...
3 ...

*** Darwin 11x5 ***
Turn = 0.
  01234
0 ..t..
1 r..f.
2 h.hrh
3 .....
4 ..h..
5 .h..t
6 ....r
7 ..h..
8 .....
9 thrr.
0 f..h.

Turn = 4.
  01234
0 .rr..
1 .h.f.
2 h.hh.
3 ....r
4 ...rr
5 ....r
6 .....
7 .....
8 r....
9 ttt..
0 t.r.h

Turn = 8.
  01234
0 r..r.
1 r.r..
2 h..rr
3 ....r
4 .....
5 .....
6 ....r
7 .....
8 t..r.
9 ttt.r
0 tt..h

Turn = 12.
  01234
0 r...r
1 r...r
2 h....
3 .....
4 .....
5 ..r..
6 ...rr
7 .....
8 t..r.
9 ttrr.
0 tt.rr

*** Darwin 4x16 ***
Turn = 0.
  0123456789012345
0 .....f..h.....rr
1 t........t..h...
2 t...t.r....f.f..
3 .tht....r.......

Turn = 1.
  0123456789012345
0 .....f.......r.r
1 t.......tt...h..
2 t.h.tr.....f.f..
3 .t.t...r........

Turn = 2.
  0123456789012345
0 .....f......r..r
1 t.h.....tt....h.
2 t...rr.....f.f..
3 .t.t..r.........

Turn = 3.
  0123456789012345
0 ..h..f.....r...r
1 t.......tt.....h
2 t..rr......f.f..
3 .t.t.r..........

Turn = 4.
  0123456789012345
0 ..h..f....r....r
1 t.......tt.....h
2 t.rr.......f.f..
3 .t.tr...........

Turn = 5.
  0123456789012345
0 ..h..f...t.....r
1 t.......tt.....r
2 trr........f.f..
3 .t.tt...........

*** Darwin 17x3 ***
Turn = 0.
  012
0 .r.
1 th.
2 ...
3 .t.
4 ...
5 ...
6 .ht
7 r..
8 ...
9 ...
0 r..
1 ..t
2 ...
3 ...
4 .f.
5 f.f
6 .rh

Turn = 6.
  012
0 ..r
1 .rr
2 ...
3 .t.
4 ...
5 ...
6 .tt
7 ..t
8 ...
9 ...
0 ..t
1 ..t
2 ...
3 ...
4 rf.
5 .rr
6 h..

Turn = 12.
  012
0 r..
1 ...
2 r..
3 ...
4 r..
5 ...
6 ..t
7 .rt
8 r..
9 .r.
0 ..t
1 ..t
2 ...
3 ..r
4 .r.
5 .r.
6 h..

Turn = 18.
  012
0 ...
1 ...
2 ..r
3 r.r
4 ...
5 ...
6 .tt
7 ..t
8 ...
9 ...
0 .tt
1 .rr
2 ..r
3 .rr
4 ...
5 ...
6 h..

*** Darwin 4x15 ***
Turn = 0.
  012345678901234
0 .trr.r.t...tf..
1 .....h.t.......
2 .frf........f..
3 r.......f......

Turn = 3.
  012345678901234
0 .t....tt...tf..
1 ...r..tt.......
2 rrr.........f..
3 ..rr....f......

Turn = 6.
  012345678901234
0 rr....tt...tt..
1 .r....tt.......
2 r.r.........f..
3 ..r..r..f......

Turn = 9.
  012345678901234
0 r.....tt...tt..
1 rr....tt.......
2 rr......r...f..
3 r......r.......

Turn = 12.
  012345678901234
0 ..r...ttt..tt..
1 r.....tt.......
2 rr.r........f..
3 ...r......r....

Turn = 15.
  012345678901234
0 .....rttt..tt..
1 ......tt.......
2 r.....r.....f..
3 rr....r......r.

Turn = 18.
  012345678901234
0 .r...rttt..tt..
1 ......tt.......
2 r......t....f..
3 .r.......r....r

*** Darwin 15x15 ***
Turn = 0.
  012345678901234
0 .......r.......
1 r........f.....
2 ...............
3 ...........r...
4 ...............
5 ...........f...
6 ....t..........
7 ...............
8 ...............
9 .....f.........
0 ........h......
1 ...............
2 ...............
3 ..........t....
4 ....f.........h

Turn = 6.
  012345678901234
0 .r...........r.
1 .........f.....
2 ...............
3 ...............
4 ...............
5 ...............
6 ....t..........
7 ...............
8 ...........r...
9 .....f.........
0 ..h........r...
1 ...............
2 ...............
3 ..........t....
4 ....f...h......

Turn = 12.
  012345678901234
0 .......r.......
1 .........f.....
2 ...............
3 ...............
4 ..............r
5 ...............
6 ....t..........
7 ...............
8 ...............
9 .....f.........
0 h..............
1 ...............
2 ...............
3 ..........tt...
4 ....fh.....t...

Turn = 18.
  012345678901234
0 .............r.
1 .........f.....
2 ...............
3 ...............
4 ...............
5 ...............
6 ....t..........
7 ...............
8 ...............
9 .....f.........
0 h.............r
1 ...............
2 ...............
3 ..........tt...
4 ....fh.....t...

*** Darwin 1x11 ***
Turn = 0.
  01234567890
0 rr.ftt.t.h.

Turn = 4.
  01234567890
0 r.rrrr.tt..

Turn = 8.
  01234567890
0 r.rrr.rtt..

*** Darwin 18x8 ***
Turn = 0.
  01234567
0 .......h
1 ........
2 ........
3 ........
4 ..r.....
5 ......f.
6 ........
7 ........
8 ........
9 ........
0 .t......
1 ........
2 ........
3 .r.r..r.
4 ......ft
5 .r......
6 ......h.
7 ........

Turn = 1.
  01234567
0 ......h.
1 ........
2 ........
3 ........
4 ...r....
5 ......f.
6 ........
7 ........
8 ........
9 ........
0 .t......
1 ........
2 ........
3 r....r..
4 ...r..ft
5 ........
6 .r.....h
7 ........

Turn = 2.
  01234567
0 .....h..
1 ........
2 ........
3 ........
4 ....r...
5 ......f.
6 ........
7 ........
8 ........
9 ........
0 .t......
1 ........
2 ........
3 r...r...
4 ......ft
5 ...r....
6 .......h
7 .r......

Turn = 3.
  01234567
0 ....h...
1 ........
2 ........
3 ........
4 .....r..
5 ......f.
6 ........
7 ........
8 ........
9 ........
0 .t......
1 ........
2 r.......
3 ...r....
4 ......tt
5 ........
6 ...r...h
7 .r......

*** Darwin 3x5 ***
Turn = 0.
  01234
0 .....
1 ..h..
2 .h...

Turn = 2.
  01234
0 .hh..
1 .....
2 .....

Turn = 4.
  01234
0 .hh..
1 .....
2 .....

Turn = 6.
  01234
0 .hh..
1 .....
2 .....

Turn = 8.
  01234
0 .hh..
1 .....
2 .....

Turn = 10.
  01234
0 .hh..
1 .....
2 .....

*** Darwin 3x7 ***
Turn = 0.
  0123456
0 .....t.
1 rt.....
2 .......

Turn = 5.
  0123456
0 .....t.
1 ....r..
2 r......

Turn = 10.
  0123456
0 .r...t.
1 .......
2 ......r

Turn = 15.
  0123456
0 ....r.r
1 .....r.
2 .......

*** Darwin 8x6 ***
Turn = 0.
  012345
0 ......
1 .....t
2 ......
3 ......
4 ......
5 ......
6 ......
7 ......

Turn = 2.
  012345
0 ......
1 .....t
2 ......
3 ......
4 ......
5 ......
6 ......
7 ......

Turn = 4.
  012345
0 ......
1 .....t
2 ......
3 ......
4 ......
5 ......
6 ......
7 ......

Turn = 6.
  012345
0 ......
1 .....t
2 ......
3 ......
4 ......
5 ......
6 ......
7 ......

Turn = 8.
  012345
0 ......
1 .....t
2 ......
3 ......
4 ......
5 ......
6 ......
7 ......

Turn = 10.
  012345
0 ......
1 .....t
2 ......
3 ......
4 ......
5 ......
6 ......
7 ......

Turn = 12.
  012345
0 ......
1 .....t
2 ......
3 ......
4 ......
5 ......
6 ......
7 ......

*** Darwin 15x20 ***
Turn = 0.
  01234567890123456789
0 ....r...............
1 ....................
2 ...r..h.............
3 .................h..
4 ....................
5 ....................
6 ....................
7 ....................
8 .............r......
9 ....................
0 ....................
1 ....................
2 ....................
3 ....................
4 ....................

Turn = 6.
  01234567890123456789
0 r...................
1 ....................
2 .........r..h.......
3 ...........h........
4 ....................
5 ....................
6 ....................
7 ....................
8 ....................
9 ....................
0 ....................
1 ....................
2 ....................
3 ....................
4 .............r......

*** Darwin 11x2 ***
Turn = 0.
  01
0 .t
1 ..
2 ..
3 ..
4 .h
5 .r
6 ..
7 t.
8 .f
9 .h
0 .r

Turn = 2.
  01
0 .t
1 ..
2 .h
3 ..
4 ..
5 ..
6 .r
7 t.
8 .f
9 .h
0 .r

Turn = 4.
  01
0 .t
1 .h
2 ..
3 ..
4 ..
5 ..
6 ..
7 tr
8 .r
9 .r
0 r.

Turn = 6.
  01
0 .t
1 .t
2 ..
3 ..
4 ..
5 ..
6 ..
7 tt
8 .t
9 rt
0 ..

Turn = 8.
  01
0 .t
1 .t
2 ..
3 ..
4 ..
5 ..
6 ..
7 rt
8 rt
9 .t
0 ..

Turn = 10.
  01
0 .t
1 .t
2 ..
3 ..
4 ..
5 ..
6 ..
7 tr
8 tt
9 .t
0 ..

*** Darwin 2x8 ***
Turn = 0.
  01234567
0 .h....h.
1 .h......

Turn = 1.
  01234567
0 .h...h..
1 ..h.....

Turn = 2.
  01234567
0 ....h...
1 .h.h....

*** Darwin 9x15 ***
Turn = 0.
  012345678901234
0 ..t........h...
1 .f.......f.....
2 ............t..
3 ...............
4 .............t.
5 ..........r....
6 ..h............
7 .........t.t...
8 ..r....f...r...

Turn = 1.
  012345678901234
0 ..t........h...
1 .f.......f.....
2 ............t..
3 ...............
4 .............t.
5 ...........r...
6 ...h...........
7 .........t.t...
8 ...r...f..r....

Turn = 2.
  012345678901234
0 ..t........h...
1 .f.......f.....
2 ............t..
3 ...............
4 .............t.
5 ............r..
6 ....h..........
7 .........t.t...
8 ....r..f.r.....

Turn = 3.
  012345678901234
0 ..t........h...
1 .f.......f.....
2 ............t..
3 ...............
4 .............t.
5 .............r.
6 .....h.........
7 .........t.t...
8 .....r.f.t.....

*** Darwin 17x5 ***
Turn = 0.
  01234
0 .....
1 .f...
2 ....f
3 .tf..
4 .....
5 .....
6 .....
7 .....
8 .....
9 .....
0 ....r
1 .t..t
2 ...r.
3 .....
4 .....
5 .....
6 .....

Turn = 2.
  01234
0 .....
1 .f...
2 ....f
3 .tt..
4 .....
5 .....
6 .....
7 .....
8 .....
9 .....
0 .....
1 .tr.r
2 ....r
3 .....
4 .....
5 .....
6 .....

Turn = 4.
  01234
0 .....
1 .f...
2 ....f
3 .tt..
4 .....
5 .....
6 .....
7 .....
8 .....
9 .....
0 .....
1 .tt.r
2 .....
3 ....r
4 .....
5 .....
6 .....

Turn = 6.
  01234
0 .....
1 .f...
2 ....f
3 .tt..
4 .....
5 .....
6 .....
7 .....
8 .....
9 .....
0 .....
1 .tt..
2 .....
3 ....r
4 .....
5 ....r
6 .....

Turn = 8.
  01234
0 .....
1 .f...
2 ....f
3 .tt..
4 .....
5 .....
6 .....
7 .....
8 .....
9 .....
0 .....
1 .tt..
2 .....
3 .....
4 .....
5 ....r
6 ....r

*** Darwin 11x1 ***
Turn = 0.
  0
0 t
1 .
2 r
3 .
4 h
5 .
6 .
7 .
8 .
9 t
0 .

Turn = 3.
  0
0 t
1 .
2 r
3 r
4 .
5 .
6 .
7 .
8 .
9 t
0 .

Turn = 6.
  0
0 r
1 r
2 r
3 .
4 .
5 .
6 .
7 .
8 .
9 t
0 .

Turn = 9.
  0
0 r
1 r
2 r
3 .
4 .
5 .
6 .
7 .
8 .
9 t
0 .

*** Darwin 20x8 ***
Turn = 0.
  01234567
0 ........
1 ......h.
2 ........
3 .......t
4 h.......
5 r..r....
6 ........
7 r......t
8 ........
9 ........
0 ...h....
1 ...f...t
2 ........
3 f.h.....
4 ......t.
5 ........
6 ...f....
7 .t...t..
8 ........
9 ........

Turn = 4.
  01234567
0 ........
1 r..r....
2 ........
3 .......t
4 r...h...
5 ......h.
6 ........
7 .......t
8 ........
9 ........
0 ...h....
1 ...f...t
2 ........
3 f.....h.
4 ......t.
5 ........
6 ...f....
7 .t...t..
8 ........
9 ........

Turn = 8.
  01234567
0 r....r..
1 r.......
2 ........
3 .......t
4 .......t
5 ........
6 ........
7 ......tt
8 ........
9 ........
0 ...h....
1 ...f...t
2 ........
3 f......h
4 ......t.
5 ........
6 ...f....
7 .t...t..
8 ........
9 ........
