25

11 15
6
r 6 14 w
t 7 11 n
r 3 5 n
f 10 0 w
h 1 14 e
t 10 12 e
10 5

18 11
4
t 3 1 s
h 5 10 s
h 11 1 e
t 8 0 n
10 5

2 9
6
f 1 7 n
h 1 8 e
f 1 1 n
h 1 6 w
t 0 1 n
f 1 5 e
10 5

8 2
5
f 4 1 w
h 7 0 s
t 1 0 s
h 5 0 n
h 0 0 s
10 5

12 3
10
f 8 0 s
t 9 0 w
f 1 0 n
f 8 1 n
r 10 1 w
h 9 2 e
t 11 2 w
h 3 2 n
h 8 1 w
h 2 0 s
10 5

15 10
7
r 3 5 w
h 14 2 e
t 6 3 w
r 6 5 s
t 0 3 n
h 12 9 n
t 2 8 n
10 5

19 5
1
r 4 3 n
10 5

2 10
1
r 1 4 w
10 5

18 12
10
r 6 6 e
h 6 5 e
r 9 8 w
t 8 8 w
r 5 2 w
f 15 3 n
h 17 0 w
f 11 7 w
h 14 8 n
r 15 2 e
10 5

3 20
3
r 1 5 e
t 2 2 s
r 0 10 n
10 5

16 18
8
r 2 14 n
t 7 11 n
h 5 4 n
h 15 11 s
h 0 7 w
r 10 6 n
t 5 17 s
h 7 16 w
10 5

15 7
1
t 2 6 s
10 5

2 1
2
r 1 0 s
r 1 0 w
10 5

4 13
1
f 3 1 n
10 5

8 18
2
h 0 1 w
t 7 2 s
10 5

20 4
5
h 12 3 s
r 8 1 e
t 2 0 w
r 0 2 s
h 19 1 n
10 5

15 4
4
f 9 1 e
t 14 0 e
r 3 3 s
r 0 3 n
10 5

9 1
2
r 3 0 s
r 5 0 n
10 5

5 13
9
h 0 7 s
f 1 10 n
t 0 6 n
h 4 6 n
h 4 3 e
r 4 12 s
r 3 7 n
r 2 1 s
f 3 1 s
10 5

19 16
4
r 7 11 e
t 11 7 s
h 1 3 n
h 3 8 s
10 5

12 17
1
t 8 10 w
10 5

4 13
3
t 3 12 s
r 2 12 w
h 0 0 w
10 5

20 6
9
t 6 4 w
t 12 2 e
t 15 4 e
f 13 2 w
f 9 2 w
r 11 5 w
f 13 4 w
h 18 2 e
r 1 1 s
10 5

14 1
7
r 6 0 n
t 10 0 w
h 13 0 n
r 5 0 s
t 2 0 e
h 4 0 n
r 13 0 s
10 5

14 14
2
t 12 11 e
t 6 10 w
10 5
