*** Darwin 7x7 ***
Turn = 0.
  0123456
0 .......
1 .......
2 ..t....
3 ..t.hft
4 .r....r
5 .......
6 .......

Turn = 7.
  0123456
0 ....h..
1 .......
2 ..t....
3 ..t..tt
4 .....tt
5 .......
6 .......

Turn = 14.
  0123456
0 ....h..
1 .......
2 ..t....
3 ..t..tt
4 .....tt
5 .......
6 .......

Turn = 21.
  0123456
0 ....h..
1 .......
2 ..t....
3 ..t..tt
4 .....tt
5 .......
6 .......

Turn = 28.
  0123456
0 ....h..
1 .......
2 ..t....
3 ..t..tt
4 .....tt
5 .......
6 .......

Turn = 35.
  0123456
0 ....h..
1 .......
2 ..t....
3 ..t..tt
4 .....tt
5 .......
6 .......

Turn = 42.
  0123456
0 ....h..
1 .......
2 ..t....
3 ..t..tt
4 .....tt
5 .......
6 .......

Turn = 49.
  0123456
0 ....h..
1 .......
2 ..t....
3 ..t..tt
4 .....tt
5 .......
6 .......

*** Darwin 13x11 ***
Turn = 0.
  01234567890
0 ...........
1 ...........
2 ..........r
3 ...........
4 ...........
5 ..r....f...
6 ...........
7 ...........
8 ...........
9 ...........
0 ...........
1 ....r.....r
2 ...........

*** Darwin 5x8 ***
Turn = 0.
  01234567
0 ........
1 ...t....
2 ........
3 f.......
4 .h...h..

Turn = 2.
  01234567
0 ........
1 ...t....
2 ........
3 f.......
4 h....h..

Turn = 4.
  01234567
0 ........
1 ...t....
2 ........
3 f.......
4 h....h..

Turn = 6.
  01234567
0 ........
1 ...t....
2 ........
3 f.......
4 h....h..

Turn = 8.
  01234567
0 ........
1 ...t....
2 ........
3 f.......
4 h....h..

*** Darwin 10x4 ***
Turn = 0.
  0123
0 h...
1 ....
2 .h..
3 ....
4 .f..
5 ....
6 ....
7 ....
8 ..h.
9 ....

Turn = 1.
  0123
0 h...
1 ....
2 ..h.
3 ....
4 .f..
5 ....
6 ....
7 ..h.
8 ....
9 ....

*** Darwin 2x2 ***
Turn = 0.
  01
0 .t
1 .t

Turn = 1.
  01
0 .t
1 .t

Turn = 2.
  01
0 .t
1 .t

Turn = 3.
  01
0 .t
1 .t

Turn = 4.
  01
0 .t
1 .t

*** Darwin 5x4 ***
Turn = 0.
  0123
0 ....
1 ....
2 ....
3 ...f
4 ....

Turn = 1.
  0123
0 ....
1 ....
2 ....
3 ...f
4 ....

Turn = 2.
  0123
0 ....
1 ....
2 ....
3 ...f
4 ....

Turn = 3.
  0123
0 ....
1 ....
2 ....
3 ...f
4 ....

Turn = 4.
  0123
0 ....
1 ....
2 ....
3 ...f
4 ....

Turn = 5.
  0123
0 ....
1 ....
2 ....
3 ...f
4 ....

Turn = 6.
  0123
0 ....
1 ....
2 ....
3 ...f
4 ....

Turn = 7.
  0123
0 ....
1 ....
2 ....
3 ...f
4 ....

Turn = 8.
  0123
0 ....
1 ....
2 ....
3 ...f
4 ....

Turn = 9.
  0123
0 ....
1 ....
2 ....
3 ...f
4 ....

Turn = 10.
  0123
0 ....
1 ....
2 ....
3 ...f
4 ....

Turn = 11.
  0123
0 ....
1 ....
2 ....
3 ...f
4 ....

Turn = 12.
  0123
0 ....
1 ....
2 ....
3 ...f
4 ....

Turn = 13.
  0123
0 ....
1 ....
2 ....
3 ...f
4 ....

Turn = 14.
  0123
0 ....
1 ....
2 ....
3 ...f
4 ....

Turn = 15.
  0123
0 ....
1 ....
2 ....
3 ...f
4 ....

Turn = 16.
  0123
0 ....
1 ....
2 ....
3 ...f
4 ....

Turn = 17.
  0123
0 ....
1 ....
2 ....
3 ...f
4 ....

Turn = 18.
  0123
0 ....
1 ....
2 ....
3 ...f
4 ....

Turn = 19.
  0123
0 ....
1 ....
2 ....
3 ...f
4 ....

Turn = 20.
  0123
0 ....
1 ....
2 ....
3 ...f
4 ....

*** Darwin 2x9 ***
Turn = 0.
  012345678
0 .t.......
1 .f...fhfh

Turn = 5.
  012345678
0 .t.......
1 .t...fhfh

Turn = 10.
  012345678
0 .t.......
1 .t...fhfh

*** Darwin 8x2 ***
Turn = 0.
  01
0 h.
1 t.
2 ..
3 ..
4 .f
5 h.
6 ..
7 h.

Turn = 5.
  01
0 t.
1 t.
2 h.
3 ..
4 .f
5 ..
6 ..
7 h.

Turn = 10.
  01
0 t.
1 t.
2 t.
3 ..
4 .f
5 ..
6 ..
7 h.

*** Darwin 3x6 ***
Turn = 0.
  012345
0 ....t.
1 .r..t.
2 ...tf.

Turn = 55.
  012345
0 ....t.
1 ...t..
2 ...ttt

Turn = 110.
  012345
0 ....t.
1 ...t..
2 ...ttt

Turn = 165.
  012345
0 ....t.
1 ...t..
2 ...ttt

Turn = 220.
  012345
0 ....t.
1 ...t..
2 ...ttt

Turn = 275.
  012345
0 ....t.
1 ...t..
2 ...ttt

Turn = 330.
  012345
0 ....t.
1 ...t..
2 ...ttt

Turn = 385.
  012345
0 ....t.
1 ...t..
2 ...ttt

Turn = 440.
  012345
0 ....t.
1 ...t..
2 ...ttt

Turn = 495.
  012345
0 ....t.
1 ...t..
2 ...ttt

Turn = 550.
  012345
0 ....t.
1 ...t..
2 ...ttt

Turn = 605.
  012345
0 ....t.
1 ...t..
2 ...ttt

Turn = 660.
  012345
0 ....t.
1 ...t..
2 ...ttt

Turn = 715.
  012345
0 ....t.
1 ...t..
2 ...ttt

Turn = 770.
  012345
0 ....t.
1 ...t..
2 ...ttt

Turn = 825.
  012345
0 ....t.
1 ...t..
2 ...ttt

Turn = 880.
  012345
0 ....t.
1 ...t..
2 ...ttt

Turn = 935.
  012345
0 ....t.
1 ...t..
2 ...ttt

*** Darwin 9x3 ***
Turn = 0.
  012
0 h..
1 ...
2 .h.
3 ...
4 .f.
5 ...
6 ...
7 ...
8 ..h

Turn = 1.
  012
0 h..
1 ...
2 ..h
3 ...
4 .f.
5 ...
6 ...
7 ..h
8 ...

*** Darwin 2x9 ***
Turn = 0.
  012345678
0 .h.......
1 .f.......

Turn = 3.
  012345678
0 h........
1 .f.......

*** Darwin 3x3 ***
Turn = 0.
  012
0 r..
1 .h.
2 ..t

Turn = 1.
  012
0 .h.
1 r..
2 ..t

Turn = 2.
  012
0 .h.
1 ...
2 r.t

Turn = 3.
  012
0 .h.
1 ...
2 r.t

Turn = 4.
  012
0 .h.
1 ...
2 r.t

Turn = 5.
  012
0 .h.
1 ...
2 r.t

*** Darwin 3x3 ***
Turn = 0.
  012
0 .r.
1 .h.
2 r..

Turn = 7.
  012
0 r.r
1 r..
2 ...

*** Darwin 1x3 ***
Turn = 0.
  012
0 .h.

*** Darwin 11x1 ***
Turn = 0.
  0
0 t
1 .
2 r
3 .
4 h
5 .
6 .
7 .
8 .
9 t
0 .

Turn = 3.
  0
0 t
1 .
2 r
3 r
4 .
5 .
6 .
7 .
8 .
9 t
0 .

Turn = 6.
  0
0 r
1 r
2 r
3 .
4 .
5 .
6 .
7 .
8 .
9 t
0 .

Turn = 9.
  0
0 r
1 r
2 r
3 .
4 .
5 .
6 .
7 .
8 .
9 t
0 .

*** Darwin 5x6 ***
Turn = 0.
  012345
0 .....r
1 h.....
2 ....f.
3 h.....
4 hh....

Turn = 3.
  012345
0 ......
1 ...h..
2 ....fr
3 h.....
4 h...h.

*** Darwin 6x4 ***
Turn = 0.
  0123
0 ....
1 ....
2 ....
3 ....
4 ..h.
5 ...t

Turn = 5.
  0123
0 ..h.
1 ....
2 ....
3 ....
4 ....
5 ...t

Turn = 10.
  0123
0 ..h.
1 ....
2 ....
3 ....
4 ....
5 ...t

Turn = 15.
  0123
0 ..h.
1 ....
2 ....
3 ....
4 ....
5 ...t

*** Darwin 4x4 ***
Turn = 0.
  0123
0 ..f.
1 ..r.
2 .f..
3 ....

Turn = 10.
  0123
0 ....
1 ....
2 .f..
3 r..r

*** Darwin 9x8 ***
Turn = 0.
  01234567
0 ........
1 .......r
2 ........
3 ........
4 ........
5 ........
6 ........
7 ...h....
8 ........

Turn = 70.
  01234567
0 ........
1 ........
2 ........
3 ........
4 .......r
5 ........
6 ........
7 ........
8 r.......

*** Darwin 7x11 ***
Turn = 0.
  01234567890
0 ...........
1 ...........
2 ...........
3 ...........
4 ...........
5 ...........
6 .........r.

Turn = 59.
  01234567890
0 ...........
1 ...........
2 ...........
3 ...........
4 ...........
5 ...........
6 .........r.

*** Darwin 8x4 ***
Turn = 0.
  0123
0 ....
1 ....
2 ..f.
3 ....
4 .h.h
5 .h.h
6 ....
7 ....

Turn = 5.
  0123
0 .h..
1 ....
2 ..f.
3 ....
4 h..h
5 ...h
6 ....
7 ....

Turn = 10.
  0123
0 .h..
1 ....
2 ..f.
3 ....
4 h..h
5 ...h
6 ....
7 ....

Turn = 15.
  0123
0 .h..
1 ....
2 ..f.
3 ....
4 h..h
5 ...h
6 ....
7 ....

Turn = 20.
  0123
0 .h..
1 ....
2 ..f.
3 ....
4 h..h
5 ...h
6 ....
7 ....

Turn = 25.
  0123
0 .h..
1 ....
2 ..f.
3 ....
4 h..h
5 ...h
6 ....
7 ....

*** Darwin 4x11 ***
Turn = 0.
  01234567890
0 .r....rt...
1 ...t..h....
2 ...t.......
3 ......rf...

Turn = 1.
  01234567890
0 ......tt...
1 .r.t...r...
2 ...t.......
3 ......rf...

Turn = 2.
  01234567890
0 ......tt...
1 ...t....r..
2 .r.t.......
3 .....r.f...

Turn = 3.
  01234567890
0 ......tt...
1 ...t.....r.
2 ...t.......
3 .r..r..f...

Turn = 4.
  01234567890
0 ......tt...
1 ...t......r
2 ...t.......
3 .r.r...f...

Turn = 5.
  01234567890
0 ......tt...
1 ...t......r
2 ...t.......
3 ..rr...f...

*** Darwin 8x8 ***
Turn = 0.
  01234567
0 t.......
1 .fh.....
2 ..fth...
3 ..r.h...
4 .t..f...
5 ..f.rf..
6 .h......
7 ........

Turn = 50.
  01234567
0 rr..rr.r
1 .r.....r
2 ........
3 ....t...
4 ....tt.r
5 .......r
6 ........
7 .r..r...

Turn = 100.
  01234567
0 r.r....r
1 ...rr.r.
2 .......r
3 r......r
4 .......r
5 ........
6 .......r
7 .....rrr

Turn = 150.
  01234567
0 .....rr.
1 .r......
2 ..r.....
3 ..rrr...
4 r.......
5 ....r...
6 rr..r...
7 .....rr.

*** Darwin 1x6 ***
Turn = 0.
  012345
0 ....t.

Turn = 31.
  012345
0 ....t.
